0	0.00568759
0.001	0.0061284
0.002	0.00437647
0.003	0.00534851
0.004	0.00485119
0.005	0.00549545
0.006	0.00478337
0.007	0.0057102
0.008	0.0057102
0.009	0.00564238
0.01	0.00606059
0.011	0.00456862
0.012	0.0061284
0.013	0.00481728
0.014	0.00528069
0.015	0.00400348
0.016	0.00486249
0.017	0.00541633
0.018	0.00506594
0.019	0.00504333
0.02	0.00470425
0.021	0.00585714
0.022	0.00435386
0.023	0.00499812
0.024	0.00393566
0.025	0.00511115
0.026	0.00504333
0.027	0.0048851
0.028	0.004919
0.029	0.00398087
0.03	0.00597016
0.031	0.00473816
0.032	0.00495291
0.033	0.00356267
0.034	0.0048851
0.035	0.00436517
0.036	0.00424084
0.037	0.00434256
0.038	0.00469295
0.039	0.00565369
0.04	0.00457992
0.041	0.00494161
0.042	0.00365309
0.043	0.00442168
0.044	0.00334791
0.045	0.00412781
0.046	0.00430865
0.047	0.00461383
0.048	0.00429735
0.049	0.00413911
0.05	0.00538242
0.051	0.00358527
0.052	0.00438777
0.053	0.00332531
0.054	0.00522418
0.055	0.00417302
0.056	0.00441038
0.057	0.00344964
0.058	0.00363048
0.059	0.00434256
0.06	0.00347224
0.061	0.00439907
0.062	0.00304274
0.063	0.00477207
0.064	0.00385654
0.065	0.00422953
0.066	0.00335922
0.067	0.00434256
0.068	0.00471555
0.069	0.00361918
0.07	0.00502073
0.071	0.00378872
0.072	0.00464774
0.073	0.00307665
0.074	0.00390175
0.075	0.00303143
0.076	0.00420693
0.077	0.00402608
0.078	0.00401478
0.079	0.00457992
0.08	0.0041165
0.081	0.00496421
0.082	0.0028958
0.083	0.00377742
0.084	0.00320098
0.085	0.00375481
0.086	0.00323489
0.087	0.00372091
0.088	0.00387915
0.089	0.00363048
0.09	0.00433126
0.091	0.00280538
0.092	0.00360788
0.093	0.00243239
0.094	0.00431995
0.095	0.0033027
0.096	0.00347224
0.097	0.00360788
0.098	0.00387915
0.099	0.00407129
0.1	0.00234196
0.101	0.00347224
0.102	0.00311055
0.103	0.00452341
0.104	0.00227415
0.105	0.00257932
0.106	0.00235327
0.107	0.00350615
0.108	0.00393566
0.109	0.00271496
0.11	0.00351746
0.111	0.00269235
0.112	0.00340443
0.113	0.00220633
0.114	0.00342703
0.115	0.00306534
0.116	0.00312186
0.117	0.00218372
0.118	0.00217242
0.119	0.00326879
0.12	0.00262453
0.121	0.00365309
0.122	0.00254541
0.123	0.0036983
0.124	0.00280538
0.125	0.00246629
0.126	0.00226284
0.127	0.00278277
0.128	0.00264714
0.129	0.00191246
0.13	0.00245499
0.131	0.00222894
0.132	0.0028958
0.133	0.00156207
0.134	0.00240978
0.135	0.00140383
0.136	0.00264714
0.137	0.00256802
0.138	0.00227415
0.139	0.00315577
0.14	0.00262453
0.141	0.00313316
0.142	0.00124559
0.143	0.00281668
0.144	0.00160728
0.145	0.0024776
0.146	0.00185594
0.147	0.00221763
0.148	0.00179943
0.149	0.00198027
0.15	0.00299753
0.151	0.00142644
0.152	0.00294101
0.153	0.00187855
0.154	0.00219503
0.155	0.00035267
0.156	0.000827388
0.157	0.00170901
0.158	0.00149425
0.159	0.00161858
0.16	0.00091781
0.161	0.00240978
0.162	0.00175422
0.163	0.00202549
0.164	0.00112126
0.165	0.00235327
0.166	0.00130211
0.167	0.000499606
0.168	0.000375275
0.169	0.000443092
0.17	0.00225154
0.171	0.00115517
0.172	0.00091781
0.173	-0.000246379
0.174	0.00158468
0.175	0.000748268
0.176	0.000578726
0.177	0.000443092
0.178	0.00104214
0.179	0.00115517
0.18	0.000239642
0.181	0.00140383
0.182	0.000104008
0.183	0.00110996
0.184	-0.000359407
0.185	-0.000528949
0.186	-0.000608069
0.187	0.000296156
0.188	7.00995e-05
0.189	-0.000755005
0.19	0.000782176
0.191	-0.000302893
0.192	0.000951718
0.193	-0.000890639
0.194	8.14023e-05
0.195	-0.000235076
0.196	5.87967e-05
0.197	-0.000472435
0.198	-0.000495041
0.199	0.000262247
0.2	-0.000834125
0.201	9.27052e-05
0.202	-0.00174965
0.203	-0.000608069
0.204	-0.000822822
0.205	-0.000382013
0.206	-0.00182877
0.207	-0.00124103
0.208	-0.000325499
0.209	-0.000540252
0.21	-0.00044983
0.211	-0.00133145
0.212	9.27052e-05
0.213	-0.00116191
0.214	-0.000167259
0.215	-0.00171574
0.216	-0.00176096
0.217	-0.00186268
0.218	-0.00129754
0.219	-0.00124103
0.22	-0.00142187
0.221	0.000465698
0.222	-0.00134275
0.223	-0.000528949
0.224	-0.00127493
0.225	-0.000596766
0.226	-0.00146708
0.227	-0.00134275
0.228	-0.000506344
0.229	-0.000709794
0.23	-0.000743703
0.231	-0.00216786
0.232	-0.000800217
0.233	-0.00146708
0.234	-0.000201168
0.235	-0.00132015
0.236	-0.000879336
0.237	-0.000461132
0.238	-0.000687189
0.239	-0.00103758
0.24	-0.00187398
0.241	-0.000664583
0.242	-0.000969759
0.243	-0.000122048
0.244	-0.00236
0.245	-0.00142187
0.246	-0.00104888
0.247	-0.000336801
0.248	0.00719087
0.249	0.0268804
0.25	0.0592177
0.251	0.0964039
0.252	0.139151
0.253	0.182757
0.254	0.230512
0.255	0.276175
0.256	0.319352
0.257	0.360539
0.258	0.401105
0.259	0.439342
0.26	0.472527
0.261	0.504062
0.262	0.532014
0.263	0.559864
0.264	0.582402
0.265	0.603583
0.266	0.621555
0.267	0.638826
0.268	0.653045
0.269	0.664788
0.27	0.675888
0.271	0.684116
0.272	0.692186
0.273	0.696447
0.274	0.701816
0.275	0.703692
0.276	0.705851
0.277	0.706823
0.278	0.706337
0.279	0.705682
0.28	0.703952
0.281	0.702381
0.282	0.697849
0.283	0.694808
0.284	0.689202
0.285	0.68571
0.286	0.679957
0.287	0.674068
0.288	0.668676
0.289	0.662279
0.29	0.656435
0.291	0.648659
0.292	0.643166
0.293	0.635164
0.294	0.628325
0.295	0.619667
0.296	0.61249
0.297	0.604974
0.298	0.597548
0.299	0.589964
0.3	0.580627
0.301	0.574287
0.302	0.564939
0.303	0.557796
0.304	0.549194
0.305	0.542074
0.306	0.533043
0.307	0.525718
0.308	0.518541
0.309	0.510392
0.31	0.504107
0.311	0.494715
0.312	0.488125
0.313	0.479388
0.314	0.473149
0.315	0.464423
0.316	0.457359
0.317	0.449797
0.318	0.443264
0.319	0.435646
0.32	0.427576
0.321	0.421292
0.322	0.413843
0.323	0.408712
0.324	0.400404
0.325	0.394561
0.326	0.387564
0.327	0.381574
0.328	0.374837
0.329	0.36801
0.33	0.363354
0.331	0.356651
0.332	0.352153
0.333	0.344399
0.334	0.339075
0.335	0.332486
0.336	0.327693
0.337	0.321804
0.338	0.315882
0.339	0.311157
0.34	0.305449
0.341	0.30086
0.342	0.294203
0.343	0.290371
0.344	0.284415
0.345	0.27969
0.346	0.27431
0.347	0.270524
0.348	0.265833
0.349	0.260905
0.35	0.257277
0.351	0.251795
0.352	0.248743
0.353	0.243793
0.354	0.24065
0.355	0.235191
0.356	0.231077
0.357	0.226544
0.358	0.223414
0.359	0.218938
0.36	0.214066
0.361	0.212721
0.362	0.208279
0.363	0.205374
0.364	0.199813
0.365	0.197078
0.366	0.193845
0.367	0.191031
0.368	0.187448
0.369	0.184159
0.37	0.181774
0.371	0.177773
0.372	0.17558
0.373	0.171161
0.374	0.169793
0.375	0.166029
0.376	0.162932
0.377	0.159734
0.378	0.157315
0.379	0.155133
0.38	0.152138
0.381	0.150443
0.382	0.146769
0.383	0.144667
0.384	0.140293
0.385	0.138902
0.386	0.137286
0.387	0.134946
0.388	0.132562
0.389	0.129691
0.39	0.128594
0.391	0.126017
0.392	0.124412
0.393	0.121361
0.394	0.120253
0.395	0.117438
0.396	0.115189
0.397	0.113121
0.398	0.111911
0.399	0.110272
0.4	0.107865
0.401	0.106791
0.402	0.103604
0.403	0.103095
0.404	0.100134
0.405	0.0988453
0.406	0.0971499
0.407	0.0960196
0.408	0.0948102
0.409	0.0928435
0.41	0.0918037
0.411	0.0890119
0.412	0.0892266
0.413	0.0867739
0.414	0.0857341
0.415	0.083304
0.416	0.0830214
0.417	0.0814277
0.418	0.0794723
0.419	0.079201
0.42	0.0777656
0.421	0.0775734
0.422	0.074906
0.423	0.0738548
0.424	0.0719786
0.425	0.0715264
0.426	0.0696728
0.427	0.0683051
0.428	0.0680904
0.429	0.0668923
0.43	0.0669714
0.431	0.0642135
0.432	0.063784
0.433	0.0622468
0.434	0.0619756
0.435	0.0605288
0.436	0.0595003
0.437	0.0590142
0.438	0.0584265
0.439	0.0574771
0.44	0.0552052
0.441	0.0553295
0.442	0.0544479
0.443	0.0541314
0.444	0.051577
0.445	0.051577
0.446	0.0510684
0.447	0.051091
0.448	0.0496216
0.449	0.0483105
0.45	0.0487061
0.451	0.0472593
0.452	0.0467281
0.453	0.0452022
0.454	0.0459821
0.455	0.0446936
0.456	0.0438233
0.457	0.0426591
0.458	0.0433146
0.459	0.0434616
0.46	0.0413932
0.461	0.0410202
0.462	0.0398786
0.463	0.0407263
0.464	0.0390535
0.465	0.0390083
0.466	0.0381945
0.467	0.0386466
0.468	0.0374824
0.469	0.0360243
0.47	0.0365782
0.471	0.0354931
0.472	0.0356174
0.473	0.033549
0.474	0.0345211
0.475	0.0333682
0.476	0.0334699
0.477	0.0323735
0.478	0.0313676
0.479	0.0322379
0.48	0.0311754
0.481	0.0317519
0.482	0.0303616
0.483	0.0308137
0.484	0.0296269
0.485	0.0295478
0.486	0.0277055
0.487	0.0276603
0.488	0.0279202
0.489	0.0278298
0.49	0.0278637
0.491	0.0261005
0.492	0.0267786
0.493	0.0261457
0.494	0.0260213
0.495	0.0245407
0.496	0.024405
0.497	0.0252528
0.498	0.0249363
0.499	0.0242242
